<?xml version="1.0" standalone="no"?>
 <!DOCTYPE svg PUBLIC "-//W3C//DTD SVG 1.1//EN" 
 "http://www.w3.org/Graphics/SVG/1.1/DTD/svg11.dtd"> 
<svg
  xmlns:svg="http://www.w3.org/2000/svg"
  xmlns="http://www.w3.org/2000/svg"
  xmlns:xlink="http://www.w3.org/1999/xlink"
  version="1.1"
  width="7.203440cm" height="2.928620cm" viewBox="0 0 28360 11530">
<title>SVG Picture created as attiny412_breakout_timer-F_Cu.svg date 2021/06/09 13:15:55 </title>
  <desc>Picture generated by PCBNEW </desc>
<g style="fill:#000000; fill-opacity:1;stroke:#000000; stroke-opacity:1;
stroke-linecap:round; stroke-linejoin:round;"
 transform="translate(0 0) scale(1 1)">
</g>
<g style="fill:#000000; fill-opacity:0.0; 
stroke:#000000; stroke-width:-0.000393701; stroke-opacity:1; 
stroke-linecap:round; stroke-linejoin:round;">
<g >
</g>
<g style="fill:#000000; fill-opacity:0.0; 
stroke:#000000; stroke-width:0; stroke-opacity:1; 
stroke-linecap:round; stroke-linejoin:round;">
</g>
<g style="fill:#000000; fill-opacity:1.0; 
stroke:#000000; stroke-width:0; stroke-opacity:1; 
stroke-linecap:round; stroke-linejoin:round;">
<path style="fill:#000000; fill-opacity:1.0; 
stroke:#000000; stroke-width:0; stroke-opacity:1; 
stroke-linecap:round; stroke-linejoin:round;fill-rule:evenodd;"
d="M 13023.5,8021.65
13417.2,8021.65
13417.2,8730.32
13023.5,8730.32
Z" /> 
<path style="fill:#000000; fill-opacity:1.0; 
stroke:#000000; stroke-width:0; stroke-opacity:1; 
stroke-linecap:round; stroke-linejoin:round;fill-rule:evenodd;"
d="M 12688.9,7076.77
13082.6,7076.77
13082.6,7785.43
12688.9,7785.43
Z" /> 
<path style="fill:#000000; fill-opacity:1.0; 
stroke:#000000; stroke-width:0; stroke-opacity:1; 
stroke-linecap:round; stroke-linejoin:round;fill-rule:evenodd;"
d="M 13358.2,7076.77
13751.9,7076.77
13751.9,7785.43
13358.2,7785.43
Z" /> 
</g>
<g >
</g>
<g style="fill:#000000; fill-opacity:1.0; 
stroke:#000000; stroke-width:0; stroke-opacity:1; 
stroke-linecap:round; stroke-linejoin:round;">
<path style="fill:#000000; fill-opacity:1.0; 
stroke:#000000; stroke-width:0; stroke-opacity:1; 
stroke-linecap:round; stroke-linejoin:round;fill-rule:evenodd;"
d="M 10572.7,4389.76
10572.7,3799.21
11360.1,3799.21
11360.1,4389.76
Z" /> 
<path style="fill:#000000; fill-opacity:1.0; 
stroke:#000000; stroke-width:0; stroke-opacity:1; 
stroke-linecap:round; stroke-linejoin:round;fill-rule:evenodd;"
d="M 10572.7,6200.79
10572.7,5610.24
11360.1,5610.24
11360.1,6200.79
Z" /> 
<path style="fill:#000000; fill-opacity:1.0; 
stroke:#000000; stroke-width:0; stroke-opacity:1; 
stroke-linecap:round; stroke-linejoin:round;fill-rule:evenodd;"
d="M 10572.7,5295.28
10572.7,4704.73
11360.1,4704.73
11360.1,5295.28
Z" /> 
<path style="fill:#000000; fill-opacity:1.0; 
stroke:#000000; stroke-width:0; stroke-opacity:1; 
stroke-linecap:round; stroke-linejoin:round;fill-rule:evenodd;"
d="M 13053.1,5748.03
13053.1,4251.97
13840.5,4251.97
13840.5,5748.03
Z" /> 
</g>
<g >
</g>
<g style="fill:#000000; fill-opacity:1.0; 
stroke:#000000; stroke-width:0; stroke-opacity:1; 
stroke-linecap:round; stroke-linejoin:round;">
<path style="fill:#000000; fill-opacity:1.0; 
stroke:#000000; stroke-width:0; stroke-opacity:1; 
stroke-linecap:round; stroke-linejoin:round;fill-rule:evenodd;"
d="M 15582.6,7568.9
15582.6,8238.19
14795.2,8238.19
14795.2,7568.9
Z" /> 
<path style="fill:#000000; fill-opacity:1.0; 
stroke:#000000; stroke-width:0; stroke-opacity:1; 
stroke-linecap:round; stroke-linejoin:round;fill-rule:evenodd;"
d="M 17157.4,7568.9
17157.4,8238.19
16370,8238.19
16370,7568.9
Z" /> 
</g>
<g >
</g>
<g style="fill:#000000; fill-opacity:1.0; 
stroke:#000000; stroke-width:0; stroke-opacity:1; 
stroke-linecap:round; stroke-linejoin:round;">
<path style="fill:#000000; fill-opacity:1.0; 
stroke:#000000; stroke-width:0; stroke-opacity:1; 
stroke-linecap:round; stroke-linejoin:round;fill-rule:evenodd;"
d="M 19027.5,5875.98
19027.5,5206.69
20011.7,5206.69
20011.7,5875.98
Z" /> 
<path style="fill:#000000; fill-opacity:1.0; 
stroke:#000000; stroke-width:0; stroke-opacity:1; 
stroke-linecap:round; stroke-linejoin:round;fill-rule:evenodd;"
d="M 19027.5,6875.98
19027.5,6206.69
20011.7,6206.69
20011.7,6875.98
Z" /> 
</g>
<g >
</g>
<g style="fill:#000000; fill-opacity:1.0; 
stroke:#000000; stroke-width:0; stroke-opacity:1; 
stroke-linecap:round; stroke-linejoin:round;">
<path style="fill:#000000; fill-opacity:1.0; 
stroke:#000000; stroke-width:0; stroke-opacity:1; 
stroke-linecap:round; stroke-linejoin:round;fill-rule:evenodd;"
d="M 17157.4,6387.8
17157.4,7057.09
16370,7057.09
16370,6387.8
Z" /> 
<path style="fill:#000000; fill-opacity:1.0; 
stroke:#000000; stroke-width:0; stroke-opacity:1; 
stroke-linecap:round; stroke-linejoin:round;fill-rule:evenodd;"
d="M 15582.6,6387.8
15582.6,7057.09
14795.2,7057.09
14795.2,6387.8
Z" /> 
</g>
<g >
</g>
<g style="fill:#000000; fill-opacity:1.0; 
stroke:#000000; stroke-width:0; stroke-opacity:1; 
stroke-linecap:round; stroke-linejoin:round;">
<path style="fill:#000000; fill-opacity:1.0; 
stroke:#000000; stroke-width:0; stroke-opacity:1; 
stroke-linecap:round; stroke-linejoin:round;fill-rule:evenodd;"
d="M 9381.8,4206.69
9381.8,4875.98
8397.54,4875.98
8397.54,4206.69
Z" /> 
<path style="fill:#000000; fill-opacity:1.0; 
stroke:#000000; stroke-width:0; stroke-opacity:1; 
stroke-linecap:round; stroke-linejoin:round;fill-rule:evenodd;"
d="M 9381.8,5206.69
9381.8,5875.98
8397.54,5875.98
8397.54,5206.69
Z" /> 
</g>
<g >
</g>
<g style="fill:#000000; fill-opacity:1.0; 
stroke:#000000; stroke-width:0; stroke-opacity:1; 
stroke-linecap:round; stroke-linejoin:round;">
<path style="fill:#000000; fill-opacity:1.0; 
stroke:#000000; stroke-width:0; stroke-opacity:1; 
stroke-linecap:round; stroke-linejoin:round;fill-rule:evenodd;"
d="M 16684.9,4161.42
16684.9,3846.46
17472.3,3846.46
17472.3,4161.42
Z" /> 
<path style="fill:#000000; fill-opacity:1.0; 
stroke:#000000; stroke-width:0; stroke-opacity:1; 
stroke-linecap:round; stroke-linejoin:round;fill-rule:evenodd;"
d="M 16684.9,4661.42
16684.9,4346.46
17472.3,4346.46
17472.3,4661.42
Z" /> 
<path style="fill:#000000; fill-opacity:1.0; 
stroke:#000000; stroke-width:0; stroke-opacity:1; 
stroke-linecap:round; stroke-linejoin:round;fill-rule:evenodd;"
d="M 16684.9,5161.42
16684.9,4846.46
17472.3,4846.46
17472.3,5161.42
Z" /> 
<path style="fill:#000000; fill-opacity:1.0; 
stroke:#000000; stroke-width:0; stroke-opacity:1; 
stroke-linecap:round; stroke-linejoin:round;fill-rule:evenodd;"
d="M 16684.9,5661.42
16684.9,5346.46
17472.3,5346.46
17472.3,5661.42
Z" /> 
<path style="fill:#000000; fill-opacity:1.0; 
stroke:#000000; stroke-width:0; stroke-opacity:1; 
stroke-linecap:round; stroke-linejoin:round;fill-rule:evenodd;"
d="M 14480.2,5661.42
14480.2,5346.46
15267.6,5346.46
15267.6,5661.42
Z" /> 
<path style="fill:#000000; fill-opacity:1.0; 
stroke:#000000; stroke-width:0; stroke-opacity:1; 
stroke-linecap:round; stroke-linejoin:round;fill-rule:evenodd;"
d="M 14480.2,5161.42
14480.2,4846.46
15267.6,4846.46
15267.6,5161.42
Z" /> 
<path style="fill:#000000; fill-opacity:1.0; 
stroke:#000000; stroke-width:0; stroke-opacity:1; 
stroke-linecap:round; stroke-linejoin:round;fill-rule:evenodd;"
d="M 14480.2,4661.42
14480.2,4346.46
15267.6,4346.46
15267.6,4661.42
Z" /> 
<path style="fill:#000000; fill-opacity:1.0; 
stroke:#000000; stroke-width:0; stroke-opacity:1; 
stroke-linecap:round; stroke-linejoin:round;fill-rule:evenodd;"
d="M 14480.2,4161.42
14480.2,3846.46
15267.6,3846.46
15267.6,4161.42
Z" /> 
</g>
<g >
</g>
<g style="fill:#000000; fill-opacity:1.0; 
stroke:#000000; stroke-width:0; stroke-opacity:1; 
stroke-linecap:round; stroke-linejoin:round;">
<path style="fill:#000000; fill-opacity:1.0; 
stroke:#000000; stroke-width:0; stroke-opacity:1; 
stroke-linecap:round; stroke-linejoin:round;fill-rule:evenodd;"
d="M 10523.5,8690.95
11192.8,8690.95
11192.8,9478.35
10523.5,9478.35
Z" /> 
<path style="fill:#000000; fill-opacity:1.0; 
stroke:#000000; stroke-width:0; stroke-opacity:1; 
stroke-linecap:round; stroke-linejoin:round;fill-rule:evenodd;"
d="M 10523.5,7116.14
11192.8,7116.14
11192.8,7903.54
10523.5,7903.54
Z" /> 
</g>
<g >
</g>
<g style="fill:#000000; fill-opacity:1.0; 
stroke:#000000; stroke-width:0; stroke-opacity:1; 
stroke-linecap:round; stroke-linejoin:round;">
<path style="fill:#000000; fill-opacity:1.0; 
stroke:#000000; stroke-width:0; stroke-opacity:1; 
stroke-linecap:round; stroke-linejoin:round;fill-rule:evenodd;"
d="M 10070.8,2332.68
10070.8,1663.39
10858.2,1663.39
10858.2,2332.68
Z" /> 
<path style="fill:#000000; fill-opacity:1.0; 
stroke:#000000; stroke-width:0; stroke-opacity:1; 
stroke-linecap:round; stroke-linejoin:round;fill-rule:evenodd;"
d="M 8495.97,2332.68
8495.97,1663.39
9283.37,1663.39
9283.37,2332.68
Z" /> 
</g>
<g >
</g>
<g style="fill:#000000; fill-opacity:1.0; 
stroke:#000000; stroke-width:0; stroke-opacity:1; 
stroke-linecap:round; stroke-linejoin:round;">
<path style="fill:#000000; fill-opacity:1.0; 
stroke:#000000; stroke-width:0; stroke-opacity:1; 
stroke-linecap:round; stroke-linejoin:round;fill-rule:evenodd;"
d="M 14401.5,2332.68
14401.5,1663.39
15188.9,1663.39
15188.9,2332.68
Z" /> 
<path style="fill:#000000; fill-opacity:1.0; 
stroke:#000000; stroke-width:0; stroke-opacity:1; 
stroke-linecap:round; stroke-linejoin:round;fill-rule:evenodd;"
d="M 15976.3,2332.68
15976.3,1663.39
16763.7,1663.39
16763.7,2332.68
Z" /> 
</g>
<g >
</g>
<g style="fill:#000000; fill-opacity:1.0; 
stroke:#000000; stroke-width:0; stroke-opacity:1; 
stroke-linecap:round; stroke-linejoin:round;">
<path style="fill:#000000; fill-opacity:1.0; 
stroke:#000000; stroke-width:0; stroke-opacity:1; 
stroke-linecap:round; stroke-linejoin:round;fill-rule:evenodd;"
d="M 19027.5,3513.78
19027.5,2844.49
20011.7,2844.49
20011.7,3513.78
Z" /> 
</g>
<g >
</g>
<g >
</g>
<g style="fill:#000000; fill-opacity:1.0; 
stroke:#000000; stroke-width:0; stroke-opacity:1; 
stroke-linecap:round; stroke-linejoin:round;">
</g>
<g style="fill:#000000; fill-opacity:1.0; 
stroke:#000000; stroke-width:157.48; stroke-opacity:1; 
stroke-linecap:round; stroke-linejoin:round;">
</g>
<g style="fill:#000000; fill-opacity:0.0; 
stroke:#000000; stroke-width:157.48; stroke-opacity:1; 
stroke-linecap:round; stroke-linejoin:round;">
<path d="M15188 6722
L15188 7903
" />
<path d="M16369 1998
L16369 3295
" />
<path d="M16763 7903
L18157 7903
" />
<path d="M16369 3295
L17078 4003
" />
<path d="M7708 5541
L7708 3179
" />
<path d="M7708 3179
L8889 1998
" />
<path d="M8889 5541
L10602 5541
" />
<path d="M10602 5541
L10966 5905
" />
<path d="M8889 5541
L7708 5541
" />
</g>
<g style="fill:#000000; fill-opacity:0.0; 
stroke:#000000; stroke-width:98.4252; stroke-opacity:1; 
stroke-linecap:round; stroke-linejoin:round;">
<path d="M9519 6171
L8889 5541
" />
<path d="M9519 7450
L9519 6171
" />
<path d="M10799 7450
L10858 7509
" />
<path d="M9519 7450
L10799 7450
" />
</g>
<g style="fill:#000000; fill-opacity:0.0; 
stroke:#000000; stroke-width:157.48; stroke-opacity:1; 
stroke-linecap:round; stroke-linejoin:round;">
<path d="M18982 5003
L17078 5003
" />
<path d="M19519 5541
L18982 5003
" />
</g>
<g style="fill:#000000; fill-opacity:0.0; 
stroke:#000000; stroke-width:98.4252; stroke-opacity:1; 
stroke-linecap:round; stroke-linejoin:round;">
<path d="M12511 9084
L13220 8375
" />
<path d="M10858 9084
L12511 9084
" />
<path d="M14873 5503
L14832 5503
" />
<path d="M13555 6781
L13555 7431
" />
<path d="M14832 5503
L13555 6781
" />
<path d="M17104 5397
L16793 5397
" />
</g>
<g style="fill:#000000; fill-opacity:0.0; 
stroke:#000000; stroke-width:157.48; stroke-opacity:1; 
stroke-linecap:round; stroke-linejoin:round;">
<path d="M17078 5503
L17078 6407
" />
<path d="M17078 6407
L16763 6722
" />
<path d="M13446 5000
L14442 4003
" />
<path d="M14873 4003
L14873 2076
" />
<path d="M14873 2076
L14795 1998
" />
<path d="M10966 5000
L13446 5000
" />
<path d="M14442 4003
L14873 4003
" />
<path d="M18194 4503
L17078 4503
" />
<path d="M19519 3179
L18194 4503
" />
</g>
<g >
</g>
<g style="fill:#000000; fill-opacity:0.0; 
stroke:#000000; stroke-width:157.48; stroke-opacity:1; 
stroke-linecap:round; stroke-linejoin:round;">
<g >
</g>
<g style="fill:#000000; fill-opacity:1.0; 
stroke:#000000; stroke-width:100; stroke-opacity:1; 
stroke-linecap:round; stroke-linejoin:round;">
<path style="fill:#000000; fill-opacity:1.0; 
stroke:#000000; stroke-width:100; stroke-opacity:1; 
stroke-linecap:round; stroke-linejoin:round;fill-rule:evenodd;"
d="M 20650.7,7880.55
17926.3,10215.7
10091.5,10215.7
7364.87,7489.13
7364.87,3179.13
7378.24,3179.13
7379.83,3195.29
7379.83,5525.19
7378.24,5541.34
7384.58,5605.78
7403.38,5667.75
7433.91,5724.86
7452.92,5748.03
7474.99,5774.92
7525.05,5816
7582.16,5846.52
7644.12,5865.32
7708.57,5871.67
7724.72,5870.08
8146.33,5870.08
8146.33,5875.98
8151.16,5924.99
8165.46,5972.12
8188.67,6015.55
8219.91,6053.62
8257.98,6084.86
8301.41,6108.07
8348.54,6122.37
8397.54,6127.19
9052.37,6127.19
9220.38,6295.2
9220.38,7436.09
9218.93,7450.79
9224.71,7509.44
9241.82,7565.85
9269.6,7617.83
9275.41,7624.9
9306.99,7663.39
9352.55,7700.78
9404.53,7728.56
9460.94,7745.67
9519.59,7751.45
9534.29,7750
10272.3,7750
10272.3,7903.54
10277.1,7952.55
10291.4,7999.68
10314.7,8043.11
10345.9,8081.18
10384,8112.42
10427.4,8135.63
10474.5,8149.93
10523.5,8154.75
11192.8,8154.75
11241.8,8149.93
11289,8135.63
11332.4,8112.42
11370.5,8081.18
11401.7,8043.11
11424.9,7999.68
11439.2,7952.55
11444,7903.54
11444,7116.14
11440.2,7076.77
12437.7,7076.77
12438.9,7318.6
12501.4,7381.1
12835.7,7381.1
12835.7,6889.27
12773.2,6826.77
12688.9,6825.56
12639.9,6830.39
12592.7,6844.68
12549.3,6867.9
12511.3,6899.14
12480,6937.21
12456.8,6980.64
12442.5,7027.76
12437.7,7076.77
11440.2,7076.77
11439.2,7067.13
11424.9,7020.01
11401.7,6976.58
11370.5,6938.51
11332.4,6907.27
11289,6884.05
11241.8,6869.76
11192.8,6864.93
10523.5,6864.93
10474.5,6869.76
10427.4,6884.05
10384,6907.27
10345.9,6938.51
10314.7,6976.58
10291.4,7020.01
10277.1,7067.13
10272.3,7116.14
10272.3,7151.58
9818.8,7151.58
9818.8,6185.96
9820.25,6171.26
9818.8,6156.57
9818.8,6156.56
9814.47,6112.6
9797.37,6056.2
9769.58,6004.22
9732.19,5958.66
9720.77,5949.29
9641.56,5870.08
10321.5,5870.08
10321.5,6200.79
10326.4,6249.8
10340.7,6296.92
10363.9,6340.35
10395.1,6378.42
10433.2,6409.66
10476.6,6432.88
10523.7,6447.17
10572.7,6452
11360.1,6452
11409.2,6447.17
11456.3,6432.88
11499.7,6409.66
11537.8,6378.42
11569,6340.35
11592.2,6296.92
11606.5,6249.8
11611.4,6200.79
11611.4,5610.24
11606.5,5561.23
11592.2,5514.1
11569,5470.67
11554.3,5452.76
11569,5434.84
11592.2,5391.41
11606.5,5344.29
11608.1,5328.74
12801.8,5328.74
12801.8,5748.03
12806.7,5797.04
12821,5844.17
12844.2,5887.6
12875.4,5925.66
12913.5,5956.91
12956.9,5980.12
13004,5994.41
13053.1,5999.24
13840.5,5999.24
13889.5,5994.41
13931.8,5981.57
13353.8,6559.53
13342.4,6568.9
13324.3,6591
13305,6614.46
13284,6653.84
13277.3,6666.44
13260.1,6722.84
13255.8,6766.8
13255.8,6766.8
13254.4,6781.5
13255.8,6796.19
13255.8,6848.01
13220.4,6866.95
13178.7,6844.68
13131.6,6830.39
13082.6,6825.56
12998.2,6826.77
12935.7,6889.27
12935.7,7381.1
12943.6,7381.1
12943.6,7481.1
12935.7,7481.1
12935.7,7488.98
12835.7,7488.98
12835.7,7481.1
12501.4,7481.1
12438.9,7543.6
12437.7,7785.43
12442.5,7834.44
12456.8,7881.57
12480,7925
12511.3,7963.07
12549.3,7994.31
12592.7,8017.52
12639.9,8031.82
12688.9,8036.64
12772.3,8035.45
12772.3,8400.89
12387.8,8785.43
11444,8785.43
11444,8690.95
11439.2,8641.94
11424.9,8594.81
11401.7,8551.38
11370.5,8513.31
11332.4,8482.07
11289,8458.86
11241.8,8444.56
11192.8,8439.74
10523.5,8439.74
10474.5,8444.56
10427.4,8458.86
10384,8482.07
10345.9,8513.31
10314.7,8551.38
10291.4,8594.81
10277.1,8641.94
10272.3,8690.95
10272.3,9478.35
10277.1,9527.36
10291.4,9574.48
10314.7,9617.91
10345.9,9655.98
10384,9687.22
10427.4,9710.43
10474.5,9724.73
10523.5,9729.56
11192.8,9729.56
11241.8,9724.73
11289,9710.43
11332.4,9687.22
11370.5,9655.98
11401.7,9617.91
11424.9,9574.48
11439.2,9527.36
11444,9478.35
11444,9383.86
12497,9383.86
12511.7,9385.31
12526.4,9383.86
12526.4,9383.86
12570.4,9379.53
12626.8,9362.42
12678.8,9334.64
12724.3,9297.24
12733.7,9285.83
13038,8981.52
13417.2,8981.52
13466.2,8976.7
13513.4,8962.4
13556.8,8939.19
13594.9,8907.95
13626.1,8869.88
13649.3,8826.45
13663.6,8779.32
13668.4,8730.32
13668.4,8036.64
13751.9,8036.64
13800.9,8031.82
13848,8017.52
13891.4,7994.31
13929.5,7963.07
13960.7,7925
13984,7881.57
13998.3,7834.44
14003.1,7785.43
14003.1,7076.77
13998.3,7027.76
13984,6980.64
13960.7,6937.21
13929.5,6899.14
13891.6,6868.05
14371.9,6387.8
14544,6387.8
14544,7057.09
14548.8,7106.1
14563.1,7153.22
14586.3,7196.65
14617.5,7234.72
14655.6,7265.96
14699,7289.17
14746.2,7303.47
14795.2,7308.3
14860.1,7308.3
14860.1,7317.69
14795.2,7317.69
14746.2,7322.52
14699,7336.81
14655.6,7360.03
14617.5,7391.27
14586.3,7429.33
14563.1,7472.76
14548.8,7519.89
14544,7568.9
14544,8238.19
14548.8,8287.2
14563.1,8334.32
14586.3,8377.75
14617.5,8415.82
14655.6,8447.06
14699,8470.28
14746.2,8484.57
14795.2,8489.4
15582.6,8489.4
15631.6,8484.57
15678.7,8470.28
15722.1,8447.06
15760.2,8415.82
15791.5,8377.75
15814.7,8334.32
15829,8287.2
15833.8,8238.19
16118.8,8238.19
16123.6,8287.2
16137.9,8334.32
16161.1,8377.75
16192.4,8415.82
16230.4,8447.06
16273.9,8470.28
16321,8484.57
16370,8489.4
16651.2,8488.19
16713.7,8425.69
16713.7,7953.54
16813.7,7953.54
16813.7,8425.69
16876.2,8488.19
17157.4,8489.4
17206.4,8484.57
17253.5,8470.28
17297,8447.06
17335,8415.82
17366.3,8377.75
17389.5,8334.32
17403.8,8287.2
17408.6,8238.19
17407.4,8016.04
17344.9,7953.54
16813.7,7953.54
16713.7,7953.54
16182.5,7953.54
16120,8016.04
16118.8,8238.19
15833.8,8238.19
15833.8,7568.9
16118.8,7568.9
16120,7791.04
16182.5,7853.54
16713.7,7853.54
16713.7,7381.4
16813.7,7381.4
16813.7,7853.54
17344.9,7853.54
17407.4,7791.04
17408.6,7568.9
17403.8,7519.89
17389.5,7472.76
17366.3,7429.33
17335,7391.27
17297,7360.03
17253.5,7336.81
17206.4,7322.52
17157.4,7317.69
16876.2,7318.9
16813.7,7381.4
16713.7,7381.4
16651.2,7318.9
16370,7317.69
16321,7322.52
16273.9,7336.81
16230.4,7360.03
16192.4,7391.27
16161.1,7429.33
16137.9,7472.76
16123.6,7519.89
16118.8,7568.9
15833.8,7568.9
15829,7519.89
15814.7,7472.76
15791.5,7429.33
15760.2,7391.27
15722.1,7360.03
15678.7,7336.81
15631.6,7322.52
15582.6,7317.69
15517.6,7317.69
15517.6,7308.3
15582.6,7308.3
15631.6,7303.47
15678.7,7289.17
15722.1,7265.96
15760.2,7234.72
15791.5,7196.65
15814.7,7153.22
15829,7106.1
15833.8,7057.09
15833.8,6387.8
16118.8,6387.8
16118.8,7057.09
16123.6,7106.1
16137.9,7153.22
16161.1,7196.65
16192.4,7234.72
16230.4,7265.96
16273.9,7289.17
16321,7303.47
16370,7308.3
17157.4,7308.3
17206.4,7303.47
17253.5,7289.17
17297,7265.96
17335,7234.72
17366.3,7196.65
17389.5,7153.22
17403.8,7106.1
17408.6,7057.09
17408.6,6875.98
18776.3,6875.98
18781.1,6924.99
18795.4,6972.12
18818.6,7015.55
18849.8,7053.62
18887.9,7084.86
18931.3,7108.07
18978.5,7122.37
19027.5,7127.19
19407.1,7125.98
19469.6,7063.48
19469.6,6591.34
19569.6,6591.34
19569.6,7063.48
19632.1,7125.98
20011.7,7127.19
20060.7,7122.37
20107.9,7108.07
20151.3,7084.86
20189.3,7053.62
20220.6,7015.55
20243.8,6972.12
20258.1,6924.99
20262.9,6875.98
20261.7,6653.84
20199.2,6591.34
19569.6,6591.34
19469.6,6591.34
18840,6591.34
18777.5,6653.84
18776.3,6875.98
17408.6,6875.98
17408.6,6411.35
17409,6407.48
17408.6,6403.61
17408.6,6387.8
17407.4,6375.52
17407.4,5912.63
17472.3,5912.63
17521.4,5907.8
17568.5,5893.51
17611.9,5870.29
17650,5839.05
17681.2,5800.98
17704.4,5757.55
17718.7,5710.43
17723.6,5661.42
17723.6,5346.46
17722.2,5332.68
18776.3,5332.68
18776.3,5875.98
18781.1,5924.99
18795.4,5972.12
18818.6,6015.55
18839.8,6041.34
18818.6,6067.13
18795.4,6110.56
18781.1,6157.68
18776.3,6206.69
18777.5,6428.84
18840,6491.34
19469.6,6491.34
19469.6,6483.46
19569.6,6483.46
19569.6,6491.34
20199.2,6491.34
20261.7,6428.84
20262.9,6206.69
20258.1,6157.68
20243.8,6110.56
20220.6,6067.13
20199.4,6041.34
20220.6,6015.55
20243.8,5972.12
20258.1,5924.99
20262.9,5875.98
20262.9,5206.69
20258.1,5157.68
20243.8,5110.56
20220.6,5067.13
20189.3,5029.06
20151.3,4997.82
20107.9,4974.61
20060.7,4960.31
20011.7,4955.48
19398.6,4955.48
19226.1,4782.91
19215.8,4770.36
19165.7,4729.28
19108.6,4698.75
19046.6,4679.95
18998.3,4675.2
18998.3,4675.2
18982.2,4673.61
18966,4675.2
18488.4,4675.2
19398.6,3764.99
20011.7,3764.99
20060.7,3760.16
20107.9,3745.87
20151.3,3722.65
20189.3,3691.41
20220.6,3653.34
20243.8,3609.91
20258.1,3562.79
20262.9,3513.78
20262.9,2844.49
20258.1,2795.48
20243.8,2748.35
20220.6,2704.92
20189.3,2666.86
20151.3,2635.62
20107.9,2612.4
20060.7,2598.11
20011.7,2593.28
19027.5,2593.28
18978.5,2598.11
18931.3,2612.4
18887.9,2635.62
18849.8,2666.86
18818.6,2704.92
18795.4,2748.35
18781.1,2795.48
18776.3,2844.49
18776.3,3457.56
18058.6,4175.2
17722.2,4175.2
17723.6,4161.42
17722.3,4116.44
17659.8,4053.94
17128.6,4053.94
17128.6,4061.81
17028.6,4061.81
17028.6,4053.94
16497.4,4053.94
16434.9,4116.44
16433.7,4161.42
16438.6,4210.43
16451.8,4253.94
16438.6,4297.45
16433.7,4346.46
16433.7,4661.42
16438.6,4710.43
16451.8,4753.94
16438.6,4797.45
16433.7,4846.46
16433.7,5161.42
16438.6,5210.43
16451.8,5253.94
16438.6,5297.45
16433.7,5346.46
16433.7,5661.42
16438.6,5710.43
16452.9,5757.55
16476.1,5800.98
16507.3,5839.05
16545.4,5870.29
16588.8,5893.51
16635.9,5907.8
16684.9,5912.63
16749.9,5912.63
16749.9,6136.59
16370,6136.59
16321,6141.41
16273.9,6155.71
16230.4,6178.92
16192.4,6210.16
16161.1,6248.23
16137.9,6291.66
16123.6,6338.79
16118.8,6387.8
15833.8,6387.8
15829,6338.79
15814.7,6291.66
15791.5,6248.23
15760.2,6210.16
15722.1,6178.92
15678.7,6155.71
15631.6,6141.41
15582.6,6136.59
14795.2,6136.59
14746.2,6141.41
14699,6155.71
14655.6,6178.92
14617.5,6210.16
14586.3,6248.23
14563.1,6291.66
14548.8,6338.79
14544,6387.8
14371.9,6387.8
14847,5912.63
15267.6,5912.63
15316.6,5907.8
15363.8,5893.51
15407.2,5870.29
15445.3,5839.05
15476.5,5800.98
15499.7,5757.55
15514,5710.43
15518.8,5661.42
15518.8,5346.46
15514,5297.45
15500.8,5253.94
15514,5210.43
15518.8,5161.42
15518.8,4846.46
15514,4797.45
15500.8,4753.94
15514,4710.43
15518.8,4661.42
15518.8,4346.46
15514,4297.45
15500.8,4253.94
15514,4210.43
15518.8,4161.42
15518.8,3846.46
16433.7,3846.46
16434.9,3891.44
16497.4,3953.94
17028.6,3953.94
17028.6,3658.96
17128.6,3658.96
17128.6,3953.94
17659.8,3953.94
17722.3,3891.44
17723.6,3846.46
17718.7,3797.45
17704.4,3750.32
17681.2,3706.89
17650,3668.83
17611.9,3637.58
17568.5,3614.37
17521.4,3600.07
17472.3,3595.25
17191.1,3596.46
17128.6,3658.96
17028.6,3658.96
16966.1,3596.46
16684.9,3595.25
16635.9,3600.07
16588.8,3614.37
16545.4,3637.58
16507.3,3668.83
16476.1,3706.89
16452.9,3750.32
16438.6,3797.45
16433.7,3846.46
15518.8,3846.46
15514,3797.45
15499.7,3750.32
15476.5,3706.89
15445.3,3668.83
15407.2,3637.58
15363.8,3614.37
15316.6,3600.07
15267.6,3595.25
15202.7,3595.25
15202.7,2582.53
15237.9,2579.06
15285,2564.76
15328.4,2541.55
15366.5,2510.31
15397.8,2472.24
15421,2428.81
15435.3,2381.69
15440.1,2332.68
15725.1,2332.68
15729.9,2381.69
15744.2,2428.81
15767.4,2472.24
15798.7,2510.31
15836.7,2541.55
15880.2,2564.76
15927.3,2579.06
15976.3,2583.89
16257.5,2582.68
16320,2520.18
16320,2048.03
16420,2048.03
16420,2520.18
16482.5,2582.68
16763.7,2583.89
16812.7,2579.06
16859.8,2564.76
16903.3,2541.55
16941.3,2510.31
16972.6,2472.24
16995.8,2428.81
17010.1,2381.69
17014.9,2332.68
17013.7,2110.53
16951.2,2048.03
16420,2048.03
16320,2048.03
15788.8,2048.03
15726.3,2110.53
15725.1,2332.68
15440.1,2332.68
15440.1,1663.39
15725.1,1663.39
15726.3,1885.53
15788.8,1948.03
16320,1948.03
16320,1475.89
16420,1475.89
16420,1948.03
16951.2,1948.03
17013.7,1885.53
17014.9,1663.39
17010.1,1614.38
16995.8,1567.25
16972.6,1523.82
16941.3,1485.75
16903.3,1454.51
16859.8,1431.3
16812.7,1417
16763.7,1412.18
16482.5,1413.39
16420,1475.89
16320,1475.89
16257.5,1413.39
15976.3,1412.18
15927.3,1417
15880.2,1431.3
15836.7,1454.51
15798.7,1485.75
15767.4,1523.82
15744.2,1567.25
15729.9,1614.38
15725.1,1663.39
15440.1,1663.39
15435.3,1614.38
15421,1567.25
15397.8,1523.82
15366.5,1485.75
15328.4,1454.51
15285,1431.3
15237.9,1417
15188.9,1412.18
14401.5,1412.18
14352.5,1417
14305.3,1431.3
14261.9,1454.51
14223.8,1485.75
14192.6,1523.82
14169.4,1567.25
14155.1,1614.38
14150.3,1663.39
14150.3,2332.68
14155.1,2381.69
14169.4,2428.81
14192.6,2472.24
14223.8,2510.31
14261.9,2541.55
14305.3,2564.76
14352.5,2579.06
14401.5,2583.89
14545.2,2583.89
14545.2,3595.25
14480.2,3595.25
14431.2,3600.07
14384.1,3614.37
14340.7,3637.58
14302.6,3668.83
14271.3,3706.89
14259.4,3729.21
14259.3,3729.28
14233.7,3750.32
14209.2,3770.36
14198.9,3782.9
13953.1,4028.72
13936.6,4019.88
13889.5,4005.59
13840.5,4000.76
13053.1,4000.76
13004,4005.59
12956.9,4019.88
12913.5,4043.1
12875.4,4074.34
12844.2,4112.4
12821,4155.84
12806.7,4202.96
12801.8,4251.97
12801.8,4671.26
11608.1,4671.26
11606.5,4655.72
11592.2,4608.59
11569,4565.16
11554.3,4547.24
11569,4529.33
11592.2,4485.9
11606.5,4438.77
11611.4,4389.76
11610.1,4206.99
11547.6,4144.49
11016.4,4144.49
11016.4,4152.36
10916.4,4152.36
10916.4,4144.49
10385.2,4144.49
10322.7,4206.99
10321.5,4389.76
10326.4,4438.77
10340.7,4485.9
10363.9,4529.33
10378.6,4547.24
10363.9,4565.16
10340.7,4608.59
10326.4,4655.72
10321.5,4704.73
10321.5,5212.6
9633.01,5212.6
9633.01,5206.69
9628.18,5157.68
9613.88,5110.56
9590.67,5067.13
9569.5,5041.34
9590.67,5015.55
9613.88,4972.12
9628.18,4924.99
9633.01,4875.98
9631.8,4653.84
9569.3,4591.34
8939.67,4591.34
8939.67,4599.21
8839.67,4599.21
8839.67,4591.34
8210.04,4591.34
8147.54,4653.84
8146.33,4875.98
8151.16,4924.99
8165.46,4972.12
8188.67,5015.55
8209.84,5041.34
8188.67,5067.13
8165.46,5110.56
8151.16,5157.68
8146.33,5206.69
8146.33,5212.6
8037.31,5212.6
8037.31,4206.69
8146.33,4206.69
8147.54,4428.84
8210.04,4491.34
8839.67,4491.34
8839.67,4019.19
8939.67,4019.19
8939.67,4491.34
9569.3,4491.34
9631.8,4428.84
9633.01,4206.69
9628.18,4157.68
9613.88,4110.56
9590.67,4067.13
9559.43,4029.06
9521.36,3997.82
9477.93,3974.61
9430.8,3960.31
9381.8,3955.48
9002.17,3956.69
8939.67,4019.19
8839.67,4019.19
8777.17,3956.69
8397.54,3955.48
8348.54,3960.31
8301.41,3974.61
8257.98,3997.82
8219.91,4029.06
8188.67,4067.13
8165.46,4110.56
8151.16,4157.68
8146.33,4206.69
8037.31,4206.69
8037.31,3799.21
10321.5,3799.21
10322.7,3981.99
10385.2,4044.49
10916.4,4044.49
10916.4,3611.71
11016.4,3611.71
11016.4,4044.49
11547.6,4044.49
11610.1,3981.99
11611.4,3799.21
11606.5,3750.2
11592.2,3703.08
11569,3659.65
11537.8,3621.58
11499.7,3590.34
11456.3,3567.13
11409.2,3552.83
11360.1,3548
11078.9,3549.21
11016.4,3611.71
10916.4,3611.71
10853.9,3549.21
10572.7,3548
10523.7,3552.83
10476.6,3567.13
10433.2,3590.34
10395.1,3621.58
10363.9,3659.65
10340.7,3703.08
10326.4,3750.2
10321.5,3799.21
8037.31,3799.21
8037.31,3315.3
8768.72,2583.89
9283.37,2583.89
9332.38,2579.06
9379.5,2564.76
9422.94,2541.55
9461,2510.31
9492.24,2472.24
9515.46,2428.81
9529.75,2381.69
9534.58,2332.68
9819.56,2332.68
9824.39,2381.69
9838.69,2428.81
9861.9,2472.24
9893.14,2510.31
9931.21,2541.55
9974.64,2564.76
10021.8,2579.06
10070.8,2583.89
10352,2582.68
10414.5,2520.18
10414.5,2048.03
10514.5,2048.03
10514.5,2520.18
10577,2582.68
10858.2,2583.89
10907.2,2579.06
10954.3,2564.76
10997.7,2541.55
11035.8,2510.31
11067,2472.24
11090.3,2428.81
11104.6,2381.69
11109.4,2332.68
11108.2,2110.53
11045.7,2048.03
10514.5,2048.03
10414.5,2048.03
9883.27,2048.03
9820.77,2110.53
9819.56,2332.68
9534.58,2332.68
9534.58,1663.39
9819.56,1663.39
9820.77,1885.53
9883.27,1948.03
10414.5,1948.03
10414.5,1475.89
10514.5,1475.89
10514.5,1948.03
11045.7,1948.03
11108.2,1885.53
11109.4,1663.39
11104.6,1614.38
11090.3,1567.25
11067,1523.82
11035.8,1485.75
10997.7,1454.51
10954.3,1431.3
10907.2,1417
10858.2,1412.18
10577,1413.39
10514.5,1475.89
10414.5,1475.89
10352,1413.39
10070.8,1412.18
10021.8,1417
9974.64,1431.3
9931.21,1454.51
9893.14,1485.75
9861.9,1523.82
9838.69,1567.25
9824.39,1614.38
9819.56,1663.39
9534.58,1663.39
9529.75,1614.38
9515.46,1567.25
9492.24,1523.82
9461,1485.75
9422.94,1454.51
9379.5,1431.3
9332.38,1417
9283.37,1412.18
8495.97,1412.18
8446.96,1417
8399.84,1431.3
8356.4,1454.51
8318.34,1485.75
8287.1,1523.82
8263.88,1567.25
8249.59,1614.38
8244.76,1663.39
8244.76,2178.03
7487.53,2935.26
7474.99,2945.56
7464.69,2958.1
7433.91,2995.61
7403.38,3052.72
7384.58,3114.69
7378.24,3179.13
7364.87,3179.13
7364.87,866.93
20650.7,866.93
Z" /> 
</g>
</g>
</g>
<g style="fill:#FFFFFF; fill-opacity:1.0; 
stroke:#FFFFFF; stroke-width:100; stroke-opacity:1; 
stroke-linecap:round; stroke-linejoin:round;">
</g>
<g style="fill:#000000; fill-opacity:1.0; 
stroke:#000000; stroke-width:100; stroke-opacity:1; 
stroke-linecap:round; stroke-linejoin:round;">
</g> 
</svg>
