<?xml version="1.0" standalone="no"?>
 <!DOCTYPE svg PUBLIC "-//W3C//DTD SVG 1.1//EN" 
 "http://www.w3.org/Graphics/SVG/1.1/DTD/svg11.dtd"> 
<svg
  xmlns:svg="http://www.w3.org/2000/svg"
  xmlns="http://www.w3.org/2000/svg"
  xmlns:xlink="http://www.w3.org/1999/xlink"
  version="1.1"
  width="4.114800cm" height="2.014220cm" viewBox="0 0 16200 7930">
<title>SVG Picture created as attiny412_breakout_timer-F_Cu.svg date 2021/06/03 11:43:41 </title>
  <desc>Picture generated by PCBNEW </desc>
<g style="fill:#000000; fill-opacity:1;stroke:#000000; stroke-opacity:1;
stroke-linecap:round; stroke-linejoin:round;"
 transform="translate(0 0) scale(1 1)">
</g>
<g style="fill:#000000; fill-opacity:0.0; 
stroke:#000000; stroke-width:-0.000393701; stroke-opacity:1; 
stroke-linecap:round; stroke-linejoin:round;">
<g >
</g>
<g style="fill:#000000; fill-opacity:0.0; 
stroke:#000000; stroke-width:0; stroke-opacity:1; 
stroke-linecap:round; stroke-linejoin:round;">
</g>
<g style="fill:#000000; fill-opacity:1.0; 
stroke:#000000; stroke-width:0; stroke-opacity:1; 
stroke-linecap:round; stroke-linejoin:round;">
<path style="fill:#000000; fill-opacity:1.0; 
stroke:#000000; stroke-width:0; stroke-opacity:1; 
stroke-linecap:round; stroke-linejoin:round;fill-rule:evenodd;"
d="M 9478.35,5206.69
9478.35,5875.98
8690.95,5875.98
8690.95,5206.69
Z" /> 
<path style="fill:#000000; fill-opacity:1.0; 
stroke:#000000; stroke-width:0; stroke-opacity:1; 
stroke-linecap:round; stroke-linejoin:round;fill-rule:evenodd;"
d="M 11053.1,5206.69
11053.1,5875.98
10265.7,5875.98
10265.7,5206.69
Z" /> 
</g>
<g >
</g>
<g style="fill:#000000; fill-opacity:1.0; 
stroke:#000000; stroke-width:0; stroke-opacity:1; 
stroke-linecap:round; stroke-linejoin:round;">
<path style="fill:#000000; fill-opacity:1.0; 
stroke:#000000; stroke-width:0; stroke-opacity:1; 
stroke-linecap:round; stroke-linejoin:round;fill-rule:evenodd;"
d="M 4064.96,1450.79
4064.96,2120.08
3080.71,2120.08
3080.71,1450.79
Z" /> 
<path style="fill:#000000; fill-opacity:1.0; 
stroke:#000000; stroke-width:0; stroke-opacity:1; 
stroke-linecap:round; stroke-linejoin:round;fill-rule:evenodd;"
d="M 4064.96,2450.79
4064.96,3120.08
3080.71,3120.08
3080.71,2450.79
Z" /> 
</g>
<g >
</g>
<g style="fill:#000000; fill-opacity:1.0; 
stroke:#000000; stroke-width:0; stroke-opacity:1; 
stroke-linecap:round; stroke-linejoin:round;">
<path style="fill:#000000; fill-opacity:1.0; 
stroke:#000000; stroke-width:0; stroke-opacity:1; 
stroke-linecap:round; stroke-linejoin:round;fill-rule:evenodd;"
d="M 12135.8,2332.68
12135.8,1663.39
13120.1,1663.39
13120.1,2332.68
Z" /> 
<path style="fill:#000000; fill-opacity:1.0; 
stroke:#000000; stroke-width:0; stroke-opacity:1; 
stroke-linecap:round; stroke-linejoin:round;fill-rule:evenodd;"
d="M 12135.8,3332.68
12135.8,2663.39
13120.1,2663.39
13120.1,3332.68
Z" /> 
</g>
<g >
</g>
<g style="fill:#000000; fill-opacity:1.0; 
stroke:#000000; stroke-width:0; stroke-opacity:1; 
stroke-linecap:round; stroke-linejoin:round;">
<path style="fill:#000000; fill-opacity:1.0; 
stroke:#000000; stroke-width:0; stroke-opacity:1; 
stroke-linecap:round; stroke-linejoin:round;fill-rule:evenodd;"
d="M 5403.54,4950.79
5797.24,4950.79
5797.24,5659.45
5403.54,5659.45
Z" /> 
<path style="fill:#000000; fill-opacity:1.0; 
stroke:#000000; stroke-width:0; stroke-opacity:1; 
stroke-linecap:round; stroke-linejoin:round;fill-rule:evenodd;"
d="M 5068.9,4005.91
5462.6,4005.91
5462.6,4714.57
5068.9,4714.57
Z" /> 
<path style="fill:#000000; fill-opacity:1.0; 
stroke:#000000; stroke-width:0; stroke-opacity:1; 
stroke-linecap:round; stroke-linejoin:round;fill-rule:evenodd;"
d="M 5738.19,4005.91
6131.89,4005.91
6131.89,4714.57
5738.19,4714.57
Z" /> 
</g>
<g >
</g>
<g style="fill:#000000; fill-opacity:1.0; 
stroke:#000000; stroke-width:0; stroke-opacity:1; 
stroke-linecap:round; stroke-linejoin:round;">
<path style="fill:#000000; fill-opacity:1.0; 
stroke:#000000; stroke-width:0; stroke-opacity:1; 
stroke-linecap:round; stroke-linejoin:round;fill-rule:evenodd;"
d="M 11053.1,4025.59
11053.1,4694.88
10265.7,4694.88
10265.7,4025.59
Z" /> 
<path style="fill:#000000; fill-opacity:1.0; 
stroke:#000000; stroke-width:0; stroke-opacity:1; 
stroke-linecap:round; stroke-linejoin:round;fill-rule:evenodd;"
d="M 9478.35,4025.59
9478.35,4694.88
8690.95,4694.88
8690.95,4025.59
Z" /> 
</g>
<g >
</g>
<g style="fill:#000000; fill-opacity:1.0; 
stroke:#000000; stroke-width:0; stroke-opacity:1; 
stroke-linecap:round; stroke-linejoin:round;">
<path style="fill:#000000; fill-opacity:1.0; 
stroke:#000000; stroke-width:0; stroke-opacity:1; 
stroke-linecap:round; stroke-linejoin:round;fill-rule:evenodd;"
d="M 6328.74,5994.09
6328.74,6663.39
5541.34,6663.39
5541.34,5994.09
Z" /> 
<path style="fill:#000000; fill-opacity:1.0; 
stroke:#000000; stroke-width:0; stroke-opacity:1; 
stroke-linecap:round; stroke-linejoin:round;fill-rule:evenodd;"
d="M 7903.54,5994.09
7903.54,6663.39
7116.14,6663.39
7116.14,5994.09
Z" /> 
</g>
<g >
</g>
<g style="fill:#000000; fill-opacity:1.0; 
stroke:#000000; stroke-width:0; stroke-opacity:1; 
stroke-linecap:round; stroke-linejoin:round;">
<path style="fill:#000000; fill-opacity:1.0; 
stroke:#000000; stroke-width:0; stroke-opacity:1; 
stroke-linecap:round; stroke-linejoin:round;fill-rule:evenodd;"
d="M 10689,1799.21
10689,1484.25
11476.4,1484.25
11476.4,1799.21
Z" /> 
<path style="fill:#000000; fill-opacity:1.0; 
stroke:#000000; stroke-width:0; stroke-opacity:1; 
stroke-linecap:round; stroke-linejoin:round;fill-rule:evenodd;"
d="M 10689,2299.21
10689,1984.25
11476.4,1984.25
11476.4,2299.21
Z" /> 
<path style="fill:#000000; fill-opacity:1.0; 
stroke:#000000; stroke-width:0; stroke-opacity:1; 
stroke-linecap:round; stroke-linejoin:round;fill-rule:evenodd;"
d="M 10689,2799.21
10689,2484.25
11476.4,2484.25
11476.4,2799.21
Z" /> 
<path style="fill:#000000; fill-opacity:1.0; 
stroke:#000000; stroke-width:0; stroke-opacity:1; 
stroke-linecap:round; stroke-linejoin:round;fill-rule:evenodd;"
d="M 10689,3299.21
10689,2984.25
11476.4,2984.25
11476.4,3299.21
Z" /> 
<path style="fill:#000000; fill-opacity:1.0; 
stroke:#000000; stroke-width:0; stroke-opacity:1; 
stroke-linecap:round; stroke-linejoin:round;fill-rule:evenodd;"
d="M 8484.25,3299.21
8484.25,2984.25
9271.65,2984.25
9271.65,3299.21
Z" /> 
<path style="fill:#000000; fill-opacity:1.0; 
stroke:#000000; stroke-width:0; stroke-opacity:1; 
stroke-linecap:round; stroke-linejoin:round;fill-rule:evenodd;"
d="M 8484.25,2799.21
8484.25,2484.25
9271.65,2484.25
9271.65,2799.21
Z" /> 
<path style="fill:#000000; fill-opacity:1.0; 
stroke:#000000; stroke-width:0; stroke-opacity:1; 
stroke-linecap:round; stroke-linejoin:round;fill-rule:evenodd;"
d="M 8484.25,2299.21
8484.25,1984.25
9271.65,1984.25
9271.65,2299.21
Z" /> 
<path style="fill:#000000; fill-opacity:1.0; 
stroke:#000000; stroke-width:0; stroke-opacity:1; 
stroke-linecap:round; stroke-linejoin:round;fill-rule:evenodd;"
d="M 8484.25,1799.21
8484.25,1484.25
9271.65,1484.25
9271.65,1799.21
Z" /> 
</g>
<g >
</g>
<g style="fill:#000000; fill-opacity:1.0; 
stroke:#000000; stroke-width:0; stroke-opacity:1; 
stroke-linecap:round; stroke-linejoin:round;">
<path style="fill:#000000; fill-opacity:1.0; 
stroke:#000000; stroke-width:0; stroke-opacity:1; 
stroke-linecap:round; stroke-linejoin:round;fill-rule:evenodd;"
d="M 4862.21,1633.86
4862.21,1043.31
5649.61,1043.31
5649.61,1633.86
Z" /> 
<path style="fill:#000000; fill-opacity:1.0; 
stroke:#000000; stroke-width:0; stroke-opacity:1; 
stroke-linecap:round; stroke-linejoin:round;fill-rule:evenodd;"
d="M 4862.21,3444.88
4862.21,2854.33
5649.61,2854.33
5649.61,3444.88
Z" /> 
<path style="fill:#000000; fill-opacity:1.0; 
stroke:#000000; stroke-width:0; stroke-opacity:1; 
stroke-linecap:round; stroke-linejoin:round;fill-rule:evenodd;"
d="M 4862.21,2539.37
4862.21,1948.82
5649.61,1948.82
5649.61,2539.37
Z" /> 
<path style="fill:#000000; fill-opacity:1.0; 
stroke:#000000; stroke-width:0; stroke-opacity:1; 
stroke-linecap:round; stroke-linejoin:round;fill-rule:evenodd;"
d="M 7342.52,2992.13
7342.52,1496.06
8129.92,1496.06
8129.92,2992.13
Z" /> 
</g>
<g >
</g>
<g >
</g>
<g style="fill:#000000; fill-opacity:1.0; 
stroke:#000000; stroke-width:0; stroke-opacity:1; 
stroke-linecap:round; stroke-linejoin:round;">
</g>
<g style="fill:#000000; fill-opacity:1.0; 
stroke:#000000; stroke-width:98.4252; stroke-opacity:1; 
stroke-linecap:round; stroke-linejoin:round;">
</g>
<g style="fill:#000000; fill-opacity:0.0; 
stroke:#000000; stroke-width:98.4252; stroke-opacity:1; 
stroke-linecap:round; stroke-linejoin:round;">
<path d="M9084 4360
L9084 5541
" />
<path d="M4891 2785
L5255 3149
" />
<path d="M3572 2785
L4891 2785
" />
<path d="M5255 4350
L5265 4360
" />
<path d="M5255 3149
L5255 4350
" />
<path d="M11393 2641
L11082 2641
" />
<path d="M12037 1998
L11393 2641
" />
<path d="M12627 1998
L12037 1998
" />
<path d="M5600 5994
L5935 6328
" />
<path d="M5600 5305
L5600 5994
" />
<path d="M7659 4360
L8877 3141
" />
<path d="M5935 4360
L7659 4360
" />
<path d="M11082 3937
L10659 4360
" />
<path d="M11082 3141
L11082 3937
" />
<path d="M5255 2244
L7736 2244
" />
<path d="M8338 1641
L8877 1641
" />
<path d="M7736 2244
L8338 1641
" />
</g>
<g >
</g>
<g style="fill:#000000; fill-opacity:0.0; 
stroke:#000000; stroke-width:98.4252; stroke-opacity:1; 
stroke-linecap:round; stroke-linejoin:round;">
<g >
</g>
<g style="fill:#000000; fill-opacity:1.0; 
stroke:#000000; stroke-width:157.48; stroke-opacity:1; 
stroke-linecap:round; stroke-linejoin:round;">
<path style="fill:#000000; fill-opacity:1.0; 
stroke:#000000; stroke-width:157.48; stroke-opacity:1; 
stroke-linecap:round; stroke-linejoin:round;fill-rule:evenodd;"
d="M 4606.36,937.333
4590.6,989.283
4585.28,1043.31
4586.61,1250
4655.51,1318.9
5236.22,1318.9
5236.22,1311.02
5275.59,1311.02
5275.59,1318.9
5856.3,1318.9
5925.2,1250
5926.53,1043.31
5921.21,989.283
5905.45,937.333
5883.18,895.67
15305.1,895.67
15305.1,3887.8
11840.6,3887.8
11825.2,3889.31
11810.4,3893.79
11796.8,3901.07
11784.9,3910.86
11775.1,3922.79
11767.8,3936.4
11763.3,3951.17
11761.8,3966.54
11761.8,7037.4
6452.03,7037.4
6480.13,7028.88
6548.53,6992.32
6608.48,6943.12
6657.67,6883.17
6694.23,6814.78
6716.74,6740.56
6724.35,6663.39
6839.22,6663.39
6844.54,6717.41
6860.3,6769.36
6885.89,6817.24
6920.33,6859.2
6962.29,6893.64
7010.17,6919.23
7062.12,6934.99
7116.14,6940.31
7421.26,6938.98
7490.16,6870.08
7490.16,6348.43
7529.53,6348.43
7529.53,6870.08
7598.43,6938.98
7903.54,6940.31
7957.57,6934.99
8009.52,6919.23
8057.39,6893.64
8099.36,6859.2
8133.8,6817.24
8159.39,6769.36
8175.15,6717.41
8180.47,6663.39
8179.13,6417.32
8110.24,6348.43
7529.53,6348.43
7490.16,6348.43
6909.45,6348.43
6840.55,6417.32
6839.22,6663.39
6724.35,6663.39
6724.35,5994.09
6839.22,5994.09
6840.55,6240.16
6909.45,6309.06
7490.16,6309.06
7490.16,5787.4
7529.53,5787.4
7529.53,6309.06
8110.24,6309.06
8179.13,6240.16
8180.47,5994.09
8175.15,5940.07
8159.39,5888.12
8133.8,5840.24
8099.36,5798.28
8057.39,5763.84
8009.52,5738.25
7957.57,5722.49
7903.54,5717.17
7598.43,5718.5
7529.53,5787.4
7490.16,5787.4
7421.26,5718.5
7116.14,5717.17
7062.12,5722.49
7010.17,5738.25
6962.29,5763.84
6920.33,5798.28
6885.89,5840.24
6860.3,5888.12
6844.54,5940.07
6839.22,5994.09
6724.35,5994.09
6716.74,5916.92
6694.23,5842.7
6657.67,5774.31
6608.48,5714.36
6548.53,5665.16
6480.13,5628.6
6405.92,5606.09
6328.74,5598.49
6192.85,5598.49
6192.85,5104.17
6209.07,5102.57
6283.28,5080.06
6351.68,5043.5
6411.63,4994.3
6460.82,4934.35
6497.38,4865.96
6516.43,4803.15
7637.69,4803.15
7659.45,4805.29
7681.21,4803.15
7681.21,4803.15
7746.28,4796.74
7829.77,4771.41
7906.71,4730.29
7974.15,4674.94
7988.02,4658.04
8295.34,4350.72
8295.34,4694.88
8302.94,4772.06
8325.45,4846.27
8362.01,4914.67
8391.65,4950.79
8362.01,4986.91
8325.45,5055.3
8302.94,5129.51
8295.34,5206.69
8295.34,5875.98
8302.94,5953.16
8325.45,6027.38
8362.01,6095.77
8411.21,6155.72
8471.16,6204.92
8539.55,6241.48
8613.77,6263.99
8690.95,6271.59
9478.35,6271.59
9555.53,6263.99
9629.74,6241.48
9698.13,6204.92
9758.08,6155.72
9807.28,6095.77
9843.84,6027.38
9866.35,5953.16
9873.95,5875.98
9988.82,5875.98
9994.15,5930.01
10009.9,5981.96
10035.5,6029.84
10069.9,6071.8
10111.9,6106.24
10159.8,6131.83
10211.7,6147.59
10265.7,6152.91
10570.9,6151.58
10639.8,6082.68
10639.8,5561.02
10679.1,5561.02
10679.1,6082.68
10748,6151.58
11053.1,6152.91
11107.2,6147.59
11159.1,6131.83
11207,6106.24
11249,6071.8
11283.4,6029.84
11309,5981.96
11324.8,5930.01
11330.1,5875.98
11328.7,5629.92
11259.8,5561.02
10679.1,5561.02
10639.8,5561.02
10059.1,5561.02
9990.16,5629.92
9988.82,5875.98
9873.95,5875.98
9873.95,5206.69
9866.35,5129.51
9843.84,5055.3
9807.28,4986.91
9777.64,4950.79
9807.28,4914.67
9843.84,4846.27
9866.35,4772.06
9872.05,4714.22
9877.74,4772.06
9900.26,4846.27
9936.81,4914.67
9986.01,4974.62
10046,5023.82
10055.2,5028.78
10035.5,5052.84
10009.9,5100.72
9994.15,5152.67
9988.82,5206.69
9990.16,5452.76
10059.1,5521.65
10639.8,5521.65
10639.8,5513.78
10679.1,5513.78
10679.1,5521.65
11259.8,5521.65
11328.7,5452.76
11330.1,5206.69
11324.8,5152.67
11309,5100.72
11283.4,5052.84
11263.7,5028.78
11272.9,5023.82
11332.9,4974.62
11382.1,4914.67
11418.6,4846.27
11441.2,4772.06
11448.8,4694.88
11448.8,4189.11
11452.7,4184.27
11493.9,4107.32
11519.2,4023.83
11525.6,3958.77
11525.6,3958.76
11527.7,3937.01
11525.6,3915.25
11525.6,3689.97
11553.6,3687.22
11627.8,3664.7
11696.2,3628.15
11756.1,3578.95
11805.3,3519
11841.9,3450.6
11863.5,3379.31
11864.2,3386.7
11880,3438.65
11905.6,3486.53
11940,3528.49
11982,3562.93
12029.9,3588.52
12081.8,3604.28
12135.8,3609.6
12539.4,3608.27
12608.3,3539.37
12608.3,3017.72
12647.6,3017.72
12647.6,3539.37
12716.5,3608.27
13120.1,3609.6
13174.1,3604.28
13226.1,3588.52
13273.9,3562.93
13315.9,3528.49
13350.3,3486.53
13375.9,3438.65
13391.7,3386.7
13397,3332.68
13395.7,3086.61
13326.8,3017.72
12647.6,3017.72
12608.3,3017.72
12600.4,3017.72
12600.4,2978.35
12608.3,2978.35
12608.3,2970.47
12647.6,2970.47
12647.6,2978.35
13326.8,2978.35
13395.7,2909.45
13397,2663.39
13392.6,2618.36
13399.8,2612.41
13449,2552.46
13485.6,2484.07
13508.1,2409.86
13515.7,2332.68
13515.7,1663.39
13508.1,1586.21
13485.6,1511.99
13449,1443.6
13399.8,1383.65
13339.9,1334.45
13271.5,1297.89
13197.3,1275.38
13120.1,1267.78
12135.8,1267.78
12058.6,1275.38
11984.4,1297.89
11916,1334.45
11856.1,1383.65
11806.9,1443.6
11770.3,1511.99
11747.8,1586.21
11744.3,1622.05
11683.1,1622.05
11752,1553.15
11753.3,1484.25
11748,1430.23
11732.2,1378.28
11706.6,1330.4
11672.2,1288.44
11630.2,1254
11582.4,1228.41
11530.4,1212.65
11476.4,1207.33
11171.3,1208.66
11102.4,1277.56
11102.4,1588.65
11063,1588.65
11063,1277.56
10994.1,1208.66
10689,1207.33
10635,1212.65
10583,1228.41
10535.1,1254
10493.2,1288.44
10458.7,1330.4
10433.1,1378.28
10417.4,1430.23
10412.1,1484.25
10413.4,1553.15
10482.3,1622.05
10531.4,1622.05
10469.2,1655.32
10409.2,1704.52
10360,1764.47
10323.5,1832.86
10301,1907.07
10293.4,1984.25
10293.4,2299.21
10301,2376.39
10305.6,2391.73
10301,2407.07
10293.4,2484.25
10293.4,2799.21
10301,2876.39
10305.6,2891.73
10301,2907.07
10293.4,2984.25
10293.4,3299.21
10301,3376.39
10323.5,3450.6
10360,3519
10409.2,3578.95
10469.2,3628.15
10472.6,3629.99
10265.7,3629.99
10188.6,3637.59
10114.4,3660.1
10046,3696.66
9986.01,3745.86
9936.81,3805.8
9900.26,3874.2
9877.74,3948.41
9872.05,4006.25
9866.35,3948.41
9843.84,3874.2
9807.28,3805.8
9758.08,3745.86
9698.13,3696.66
9629.74,3660.1
9555.53,3637.59
9486.5,3630.79
9491.44,3628.15
9551.39,3578.95
9600.59,3519
9637.15,3450.6
9659.66,3376.39
9667.26,3299.21
9667.26,2984.25
9659.66,2907.07
9655,2891.73
9659.66,2876.39
9667.26,2799.21
9667.26,2484.25
9659.66,2407.07
9655,2391.73
9659.66,2376.39
9667.26,2299.21
9667.26,1984.25
9659.66,1907.07
9655,1891.73
9659.66,1876.39
9667.26,1799.21
9667.26,1484.25
9659.66,1407.07
9637.15,1332.86
9600.59,1264.47
9551.39,1204.52
9491.44,1155.32
9423.05,1118.76
9348.83,1096.25
9271.65,1088.65
8484.25,1088.65
8407.07,1096.25
8332.86,1118.76
8296.04,1138.44
8281.31,1130.57
8207.1,1108.06
8129.92,1100.46
7342.52,1100.46
7265.34,1108.06
7191.13,1130.57
7122.73,1167.13
7062.79,1216.33
7013.59,1276.28
6977.03,1344.67
6954.52,1418.89
6946.91,1496.06
6946.91,1801.18
6016.24,1801.18
6015.1,1797.43
5978.54,1729.03
5929.34,1669.08
5923.53,1664.32
5926.53,1633.86
5925.2,1427.17
5856.3,1358.27
5275.59,1358.27
5275.59,1366.14
5236.22,1366.14
5236.22,1358.27
4655.51,1358.27
4586.61,1427.17
4585.28,1633.86
4588.28,1664.32
4582.47,1669.08
4533.27,1729.03
4496.71,1797.43
4474.2,1871.64
4466.6,1948.82
4466.6,2342.52
4443.53,2342.52
4430.45,2299.4
4393.89,2231
4344.7,2171.05
4337.45,2165.11
4341.89,2120.08
4340.55,1874.02
4271.65,1805.12
3592.52,1805.12
3592.52,1812.99
3553.15,1812.99
3553.15,1805.12
2874.02,1805.12
2805.12,1874.02
2803.79,2120.08
2808.22,2165.11
2800.97,2171.05
2751.78,2231
2715.22,2299.4
2692.71,2373.61
2685.1,2450.79
2685.1,3120.08
2692.71,3197.26
2715.22,3271.47
2751.78,3339.87
2800.97,3399.81
2860.92,3449.01
2929.32,3485.57
3003.53,3508.08
3080.71,3515.68
4064.96,3515.68
4142.14,3508.08
4216.35,3485.57
4284.75,3449.01
4344.7,3399.81
4393.89,3339.87
4430.45,3271.47
4443.53,3228.35
4466.6,3228.35
4466.6,3444.88
4474.2,3522.06
4496.71,3596.27
4533.27,3664.67
4582.47,3724.62
4642.42,3773.82
4710.81,3810.37
4724.74,3814.6
4703.41,3854.51
4680.89,3928.73
4673.29,4005.91
4673.29,4714.57
4680.89,4791.75
4703.41,4865.96
4739.96,4934.35
4789.16,4994.3
4849.11,5043.5
4917.51,5080.06
4991.72,5102.57
5007.94,5104.17
5007.94,5659.45
5015.54,5736.63
5038.05,5810.84
5074.61,5879.24
5123.81,5939.18
5149.1,5959.94
5145.73,5994.09
5145.73,6663.39
5153.34,6740.56
5175.85,6814.78
5212.41,6883.17
5261.6,6943.12
5321.55,6992.32
5389.95,7028.88
5418.05,7037.4
4438.98,7037.4
4438.98,3966.54
4437.46,3951.17
4432.98,3936.4
4425.71,3922.79
4415.91,3910.86
4403.98,3901.07
4390.37,3893.79
4375.6,3889.31
4360.24,3887.8
895.67,3887.8
895.67,1450.79
2803.79,1450.79
2805.12,1696.85
2874.02,1765.75
3553.15,1765.75
3553.15,1244.09
3592.52,1244.09
3592.52,1765.75
4271.65,1765.75
4340.55,1696.85
4341.89,1450.79
4336.56,1396.76
4320.81,1344.81
4295.21,1296.94
4260.78,1254.97
4218.81,1220.53
4170.94,1194.94
4118.99,1179.18
4064.96,1173.86
3661.42,1175.2
3592.52,1244.09
3553.15,1244.09
3484.25,1175.2
3080.71,1173.86
3026.68,1179.18
2974.73,1194.94
2926.86,1220.53
2884.89,1254.97
2850.46,1296.94
2824.86,1344.81
2809.11,1396.76
2803.79,1450.79
895.67,1450.79
895.67,895.67
4628.63,895.67
Z" /> 
</g>
</g>
</g>
<g style="fill:#FFFFFF; fill-opacity:1.0; 
stroke:#FFFFFF; stroke-width:157.48; stroke-opacity:1; 
stroke-linecap:round; stroke-linejoin:round;">
</g>
<g style="fill:#000000; fill-opacity:1.0; 
stroke:#000000; stroke-width:157.48; stroke-opacity:1; 
stroke-linecap:round; stroke-linejoin:round;">
<g >
</g>
<g >
</g>
<g >
</g>
<g >
</g>
<g >
</g>
<g >
</g>
<g >
</g>
<g >
</g>
<g >
</g>
</g> 
</svg>
